{"name":"Consultar registro","id":"consumo-apis-de-prueba;consultar-registro","testSteps":[{"number":1,"description":"Given Api para pruebas","duration":24,"startTime":"2021-10-13T18:05:27.997754900-05:00[America/Bogota]","result":"SUCCESS","precondition":false,"level":0},{"number":2,"description":"When consultar usuario","duration":1721,"startTime":"2021-10-13T18:05:28.029754800-05:00[America/Bogota]","result":"SUCCESS","precondition":false,"level":0,"children":[{"number":3,"description":"Camilo consultar usiarios","duration":1695,"startTime":"2021-10-13T18:05:28.048043800-05:00[America/Bogota]","result":"SUCCESS","precondition":false,"level":1,"children":[{"number":4,"description":"Camilo executes a GET on the resource /users","duration":1632,"startTime":"2021-10-13T18:05:28.072041200-05:00[America/Bogota]","result":"SUCCESS","precondition":false,"level":2,"children":[{"number":5,"description":"GET https://gorest.co.in/public/v1/users\r","duration":0,"startTime":"2021-10-13T18:05:29.705028500-05:00[America/Bogota]","result":"SUCCESS","restQuery":{"method":"GET","path":"https://gorest.co.in/public/v1/users\r","content":"\r","contentType":"application/json","requestHeaders":"Accept\u003d*/*\r\n\t\t\t\tContent-Type\u003dapplication/json; charset\u003dUTF-8\r","requestCookies":"\r","responseHeaders":"Server: nginx\r\nDate: Wed, 13 Oct 2021 23:04:54 GMT\r\nContent-Type: application/json; charset\u003dutf-8\r\nTransfer-Encoding: chunked\r\nConnection: keep-alive\r\nVary: Accept-Encoding\r\nX-Frame-Options: SAMEORIGIN\r\nX-XSS-Protection: 1; mode\u003dblock\r\nX-Content-Type-Options: nosniff\r\nX-Download-Options: noopen\r\nX-Permitted-Cross-Domain-Policies: none\r\nReferrer-Policy: strict-origin-when-cross-origin\r\nETag: W/\"f464597e7be9ab62cce978a0affb1ac4\"\r\nCache-Control: max-age\u003d0, private, must-revalidate\r\nX-Request-Id: 06df1c3a-9059-4b7f-abce-a71146a41aea\r\nX-Runtime: 0.008024\r\nStrict-Transport-Security: max-age\u003d63072000; includeSubDomains\r\nVary: Origin\r\nContent-Encoding: gzip\r","responseCookies":"\r","responseBody":"{\n    \"meta\": {\n        \"pagination\": {\n            \"total\": 2159,\n            \"pages\": 108,\n            \"page\": 1,\n            \"limit\": 20,\n            \"links\": {\n                \"previous\": null,\n                \"current\": \"https://gorest.co.in/public/v1/users?page\u003d1\",\n                \"next\": \"https://gorest.co.in/public/v1/users?page\u003d2\"\n            }\n        }\n    },\n    \"data\": [\n        {\n            \"id\": 2795,\n            \"name\": \"API Monitoring:dy2o9n\",\n            \"email\": \"apimonitoringdy2o9n@synthetic.com\",\n            \"gender\": \"male\",\n            \"status\": \"active\"\n        },\n        {\n            \"id\": 2533,\n            \"name\": \"Islam\",\n            \"email\": \"isu1@gmail.com\",\n            \"gender\": \"male\",\n            \"status\": \"active\"\n        },\n        {\n            \"id\": 2534,\n            \"name\": \"Vinicius Avanci\",\n            \"email\": \"vinicius.ramakrishna@15ce.com\",\n            \"gender\": \"male\",\n            \"status\": \"active\"\n        },\n        {\n            \"id\": 2800,\n            \"name\": \"Clifton Swift\",\n            \"email\": \"Violette.Pagac79@yahoo.com\",\n            \"gender\": \"male\",\n            \"status\": \"inactive\"\n        },\n        {\n            \"id\": 2805,\n            \"name\": \"Stephen Herzog\",\n            \"email\": \"Laverne.Grady@hotmail.com\",\n            \"gender\": \"male\",\n            \"status\": \"inactive\"\n        },\n        {\n            \"id\": 2807,\n            \"name\": \"Herman Smitham\",\n            \"email\": \"Krystal_Abernathy40@yahoo.com\",\n            \"gender\": \"male\",\n            \"status\": \"inactive\"\n        },\n        {\n            \"id\": 2277,\n            \"name\": \"Sara\",\n            \"email\": \"sard8a23@synthetic.com\",\n            \"gender\": \"female\",\n            \"status\": \"active\"\n        },\n        {\n            \"id\": 2810,\n            \"name\": \"API Monitoring:dnzx2\",\n            \"email\": \"apimonitoringdnzx2@synthetic.com\",\n            \"gender\": \"male\",\n            \"status\": \"active\"\n        },\n        {\n            \"id\": 24,\n            \"name\": \"Mandaakin Bhattacharya\",\n            \"email\": \"mandaakin_bhattacharya@osinski.info\",\n            \"gender\": \"female\",\n            \"status\": \"active\"\n        },\n        {\n            \"id\": 27,\n            \"name\": \"The Hon. Trilochan Iyengar\",\n            \"email\": \"iyengar_hon_trilochan_the@bednar-bashirian.name\",\n            \"gender\": \"male\",\n            \"status\": \"inactive\"\n        },\n        {\n            \"id\": 28,\n            \"name\": \"Sloka Khatri\",\n            \"email\": \"sloka_khatri@kozey-johns.org\",\n            \"gender\": \"male\",\n            \"status\": \"active\"\n        },\n        {\n            \"id\": 34,\n            \"name\": \"Laxman Acharya\",\n            \"email\": \"acharya_laxman@morissette.biz\",\n            \"gender\": \"female\",\n            \"status\": \"inactive\"\n        },\n        {\n            \"id\": 35,\n            \"name\": \"Swami Kakkar\",\n            \"email\": \"kakkar_swami@mayer.co\",\n            \"gender\": \"male\",\n            \"status\": \"active\"\n        },\n        {\n            \"id\": 38,\n            \"name\": \"Ritesh Banerjee\",\n            \"email\": \"banerjee_ritesh@damore-brekke.biz\",\n            \"gender\": \"male\",\n            \"status\": \"active\"\n        },\n        {\n            \"id\": 2947,\n            \"name\": \"Camilo Becerra\",\n            \"email\": \"prueba96@gmail.com\",\n            \"gender\": \"male\",\n            \"status\": \"active\"\n        },\n        {\n            \"id\": 2949,\n            \"name\": \"API Monitoring:9nthi8\",\n            \"email\": \"apimonitoring9nthi8@synthetic.com\",\n            \"gender\": \"male\",\n            \"status\": \"active\"\n        },\n        {\n            \"id\": 45,\n            \"name\": \"Bodhan Ganaka\",\n            \"email\": \"bodhan_ganaka@paucek.name\",\n            \"gender\": \"female\",\n            \"status\": \"inactive\"\n        },\n        {\n            \"id\": 46,\n            \"name\": \"Padma Kaul Sr.\",\n            \"email\": \"sr_padma_kaul@kiehn-erdman.com\",\n            \"gender\": \"female\",\n            \"status\": \"active\"\n        },\n        {\n            \"id\": 47,\n            \"name\": \"Meghnath Guha\",\n            \"email\": \"meghnath_guha@carroll-treutel.info\",\n            \"gender\": \"female\",\n            \"status\": \"active\"\n        },\n        {\n            \"id\": 48,\n            \"name\": \"Ananda Mehra\",\n            \"email\": \"mehra_ananda@orn-becker.io\",\n            \"gender\": \"female\",\n            \"status\": \"inactive\"\n        }\n    ]\n}","statusCode":200},"precondition":false,"level":3}]}]}]},{"number":6,"description":"Then puedo ver el usuario exitosamente","duration":9,"startTime":"2021-10-13T18:05:29.751235-05:00[America/Bogota]","result":"SUCCESS","precondition":false,"level":0,"children":[{"number":7,"description":"Then the full response should be a string containing \u0027data\u0027","duration":8,"startTime":"2021-10-13T18:05:29.751235-05:00[America/Bogota]","result":"SUCCESS","precondition":false,"level":1}]}],"userStory":{"id":"consumo-apis-de-prueba","storyName":"Consumo apis de prueba","path":"consumo_api.feature","type":"feature"},"featureTag":{"name":"Consumo apis de prueba","type":"feature","displayName":"Consumo apis de prueba"},"title":"Consultar registro","description":"","tags":[{"name":"Xxx","type":"UserStory","displayName":"Xxx"},{"name":"Consumo apis de prueba","type":"feature","displayName":"Consumo apis de prueba"}],"startTime":"2021-10-13T18:05:27.933758300-05:00[America/Bogota]","duration":1826,"projectKey":"","isManualTestingUpToDate":false,"manual":false,"testSource":"Cucumber","actors":[{"name":"Camilo","can":["browse the web","call an API at https://gorest.co.in/public/v1"]}],"result":"SUCCESS"}